[gd_scene load_steps=5 format=3 uid="uid://bsva5jfa3bky5"]

[ext_resource type="Shader" uid="uid://c2r22ohau2hx2" path="res://Art/Shaders/God Sword Beam.tres" id="1_o5mkr"]
[ext_resource type="Script" path="res://Scripts/Objects (Scripts)/Beam.gd" id="3_rjmiq"]

[sub_resource type="ShaderMaterial" id="ShaderMaterial_2q7qb"]
render_priority = 0
shader = ExtResource("1_o5mkr")
shader_parameter/tint = Color(1, 1, 1, 1)

[sub_resource type="TubeTrailMesh" id="TubeTrailMesh_bk2js"]
sections = 125
section_length = 0.008
section_rings = 125

[node name="God Sword Beam" type="Node3D" node_paths=PackedStringArray("meshInstance")]
script = ExtResource("3_rjmiq")
duration = 1.0
meshInstance = NodePath("MeshInstance3D")

[node name="MeshInstance3D" type="MeshInstance3D" parent="."]
transform = Transform3D(1, 0, 0, 0, -4.37114e-08, -1, 0, 1, -4.37114e-08, 0, 0, 0)
material_override = SubResource("ShaderMaterial_2q7qb")
mesh = SubResource("TubeTrailMesh_bk2js")
