[gd_scene load_steps=4 format=3 uid="uid://b3oc3cff44p6d"]

[ext_resource type="Script" path="res://Scripts/Concepts (Scripts)/UI Items (Scripts)/RoomIndicator.gd" id="1_x8xke"]
[ext_resource type="Texture2D" uid="uid://bl35kpnr7ryfd" path="res://Art/Textures/Shop Room Indicator.png" id="2_ihnsh"]
[ext_resource type="Texture2D" uid="uid://7pianoc15vwq" path="res://Art/Textures/Store.png" id="3_iteai"]

[node name="Shop Room Indicator" type="Node3D"]
script = ExtResource("1_x8xke")
pivotNormalized = Vector2(0.5, 0.5)

[node name="TextureRect" type="TextureRect" parent="."]
offset_left = -31.0
offset_top = -31.0
offset_right = 31.0
offset_bottom = 31.0
texture = ExtResource("2_ihnsh")

[node name="TextureRect2" type="TextureRect" parent="."]
modulate = Color(0, 0, 0, 1)
offset_left = -27.5
offset_top = -27.5
offset_right = 27.5
offset_bottom = 27.5
texture = ExtResource("3_iteai")
expand_mode = 1
