[gd_scene load_steps=6 format=3 uid="uid://bv3ubcbc0c4jk"]

[ext_resource type="Script" path="res://Scripts/Objects (Scripts)/Bullet.gd" id="1_e50iy"]
[ext_resource type="PackedScene" uid="uid://d0kkmc043vgju" path="res://Art/Models/Enemy Bullet 1.glb" id="3_1balp"]
[ext_resource type="Shader" uid="uid://csidgro0faohi" path="res://Art/Shaders/Enemy Bullet 1.tres" id="3_067go"]

[sub_resource type="ShaderMaterial" id="ShaderMaterial_pywow"]
render_priority = 0
shader = ExtResource("3_067go")
shader_parameter/timeOffset = null

[sub_resource type="SphereShape3D" id="SphereShape3D_vhyc7"]
radius = 1.0

[node name="Enemy Bullet 1" type="Node3D" node_paths=PackedStringArray("rigidBody")]
script = ExtResource("1_e50iy")
moveSpeed = 20.0
damage = 1
duration = 5.0
despawnMode = 2
rigidBody = NodePath("RigidBody3D")

[node name="RigidBody3D" type="RigidBody3D" parent="."]
collision_layer = 16
collision_mask = 3
input_ray_pickable = false
gravity_scale = 0.0
can_sleep = false
lock_rotation = true
max_contacts_reported = 1
contact_monitor = true

[node name="Enemy Bullet 1" parent="RigidBody3D" instance=ExtResource("3_1balp")]

[node name="SurfSphere" parent="RigidBody3D/Enemy Bullet 1" index="0"]
material_override = SubResource("ShaderMaterial_pywow")

[node name="CollisionShape3D" type="CollisionShape3D" parent="RigidBody3D"]
shape = SubResource("SphereShape3D_vhyc7")

[editable path="RigidBody3D/Enemy Bullet 1"]
