[gd_scene load_steps=3 format=3 uid="uid://b6b3nl1wwkrba"]

[ext_resource type="Script" path="res://Scripts/Concepts (Scripts)/_Curve2DPoint.gd" id="1_b8c8x"]
[ext_resource type="Texture2D" uid="uid://cw7lp0l4m2dty" path="res://Art/Textures/Circle Outline.png" id="2_a5eyq"]

[node name="_Curve 2D Point" type="Node2D" node_paths=PackedStringArray("inControlPoint", "outControlPoint")]
z_index = 4096
script = ExtResource("1_b8c8x")
inControlPoint = NodePath("In Control Point")
outControlPoint = NodePath("Out Control Point")

[node name="In Control Point" type="Node2D" parent="."]
position = Vector2(-1, 0)

[node name="Sprite2D" type="Sprite2D" parent="In Control Point"]
modulate = Color(1, 0, 0, 0.501961)
scale = Vector2(0.1, 0.1)
texture = ExtResource("2_a5eyq")

[node name="Out Control Point" type="Node2D" parent="."]
position = Vector2(1, 0)

[node name="Sprite2D" type="Sprite2D" parent="Out Control Point"]
modulate = Color(0, 1, 0, 0.501961)
scale = Vector2(0.1, 0.1)
texture = ExtResource("2_a5eyq")

[node name="Sprite2D" type="Sprite2D" parent="."]
modulate = Color(0, 0, 0, 0.501961)
scale = Vector2(0.1, 0.1)
texture = ExtResource("2_a5eyq")
