[gd_scene load_steps=2 format=3 uid="uid://bfgha4gqk3g5h"]

[ext_resource type="Script" path="res://Scripts/Concepts (Scripts)/Collectable.gd" id="1_j667y"]

[node name="Collectable" type="Node3D"]
script = ExtResource("1_j667y")

[node name="StaticBody3D" type="StaticBody3D" parent="."]
collision_layer = 8
collision_mask = 0

[node name="CollisionShape3D" type="CollisionShape3D" parent="StaticBody3D"]

[node name="MeshInstance3D" type="MeshInstance3D" parent="StaticBody3D"]
