[gd_scene load_steps=2 format=3 uid="uid://v3siexmv812p"]

[ext_resource type="Script" path="res://Scripts/Concepts (Scripts)/EventTrigger.gd" id="1_fjv0w"]

[node name="Event Trigger" type="Node2D" node_paths=PackedStringArray("button")]
script = ExtResource("1_fjv0w")
button = NodePath("Button")

[node name="Button" type="Button" parent="."]
visible = false
offset_right = 8.0
offset_bottom = 8.0
focus_mode = 0
