[gd_scene load_steps=4 format=3 uid="uid://dyq5fy3etsirh"]

[ext_resource type="Script" path="res://addons/PlaceSpotLights/PlaceSpotLightsData.gd" id="1_aa1vk"]
[ext_resource type="PackedScene" uid="uid://bt2ibb6gnr4ew" path="res://Scenes/Objects (Scenes)/Room.tscn" id="2_yhor5"]
[ext_resource type="Script" path="res://Scripts/Concepts (Scripts)/FloatRange.gd" id="3_lhdx1"]

[node name="PlaceSpotLightsData" type="Node" node_paths=PackedStringArray("totalNoticabilityRange", "eachLightNoticabilityRange", "distanceFromContactPointRange", "rangeMultiplierRange", "intensityRange", "spotAngleRange")]
script = ExtResource("1_aa1vk")
actOnScene = ExtResource("2_yhor5")
targetPlaceCount = 1
placePointsParentName = "Place Spot Lights Place Points Parent"
totalNoticabilityRange = NodePath("Total Noticability Range")
eachLightNoticabilityRange = NodePath("Each Light Noticability Range")
distanceFromContactPointRange = NodePath("Distance From Contact Point Rrange")
rangeMultiplierRange = NodePath("Range Multiplier Range")
intensityRange = NodePath("Intensity Range")
spotAngleRange = NodePath("Spot Angle Range")
degreesPerRayCast = 20.0
colorMode = 2
maxRetries = 1

[node name="Total Noticability Range" type="Node" parent="."]
script = ExtResource("3_lhdx1")
max = 99999.0

[node name="Each Light Noticability Range" type="Node" parent="."]
script = ExtResource("3_lhdx1")
max = 100.0

[node name="Distance From Contact Point Rrange" type="Node" parent="."]
script = ExtResource("3_lhdx1")
max = 250.0

[node name="Range Multiplier Range" type="Node" parent="."]
script = ExtResource("3_lhdx1")
min = 1.0
max = 5.0

[node name="Intensity Range" type="Node" parent="."]
script = ExtResource("3_lhdx1")
max = 50.0

[node name="Spot Angle Range" type="Node" parent="."]
script = ExtResource("3_lhdx1")
max = 180.0
