[gd_scene load_steps=10 format=3]

[ext_resource type="Script" path="res://Scripts/Objects (Scripts)/Enemy.gd" id="1_kqvpw"]
[ext_resource type="Script" path="res://Scripts/Concepts (Scripts)/BulletPatternEntry.gd" id="2_rneeu"]
[ext_resource type="Script" path="res://Scripts/Concepts (Scripts)/Bullet Patterrns/LoopBulletPatterns.gd" id="3_122co"]
[ext_resource type="Script" path="res://Scripts/Concepts (Scripts)/Bullet Patterrns/ShootAheadWithOffsetAndContinuouslySplitWithCountEachTimeIntervalInRelativeArc.gd" id="4_4foia"]
[ext_resource type="Script" path="res://Scripts/Concepts (Scripts)/FloatRange.gd" id="5_d3e6q"]
[ext_resource type="Texture2D" path="res://Art/Textures/Enemy 5.png" id="6_ccq0s"]
[ext_resource type="Script" path="res://Scripts/Concepts (Scripts)/Renderer.gd" id="7_u5swo"]
[ext_resource type="Texture2D" path="res://Art/Textures/Circle Outline.png" id="8_o5h6l"]

[sub_resource type="CircleShape2D" id="CircleShape2D_ne0ub"]
radius = 127.75

[node name="Enemy 5" type="Node3D" node_paths=PackedStringArray("bulletPatternEntry", "shootTransformNode", "targetedIndicator")]
script = ExtResource("1_kqvpw")
moveSpeed = 40.0
reloadSpeed = 4.0
followDistance = 0.0
bulletPatternEntry = NodePath("Bullet Pattern Entry")
shootTransformNode = NodePath("RigidBody2D/Shoot Spawner")
difficulty = 35.0
targetedIndicator = NodePath("RigidBody2D/Targeted Indicator")
maxHp = 50.0

[node name="Bullet Pattern Entry" type="Node" parent="." node_paths=PackedStringArray("bulletPattern")]
script = ExtResource("2_rneeu")
bulletPattern = NodePath("Loop Bullet Patterns")
bulletScenePath = "res://Scenes/Objects (Scenes)/Bullets (Scenes)/Enemy Bullets/Enemy Bullet 5.tscn"

[node name="Loop Bullet Patterns" type="Node" parent="Bullet Pattern Entry" node_paths=PackedStringArray("bulletPatterns")]
script = ExtResource("3_122co")
count = 1
bulletPatterns = [NodePath("Shoot Ahead With Offset And Continuously Split With Count Each Time Interval In Relative Arc"), NodePath("Shoot Ahead With Offset And Continuously Split With Count Each Time Interval In Relative Arc2")]
canShoot = false

[node name="Shoot Ahead With Offset And Continuously Split With Count Each Time Interval In Relative Arc" type="Node" parent="Bullet Pattern Entry/Loop Bullet Patterns" node_paths=PackedStringArray("splitArcRange")]
script = ExtResource("4_4foia")
interval = 1.0
splitArcRange = NodePath("Relative Degrees Range")
splitCount = 2
splitBulletScenePath = "res://Scenes/Objects (Scenes)/Bullets (Scenes)/Enemy Bullets/Enemy Bullet 5B.tscn"
offset = Vector3(0, 0, 0)
canShoot = true

[node name="Relative Degrees Range" type="Node" parent="Bullet Pattern Entry/Loop Bullet Patterns/Shoot Ahead With Offset And Continuously Split With Count Each Time Interval In Relative Arc"]
script = ExtResource("5_d3e6q")
min = -90.0
max = 90.0

[node name="Shoot Ahead With Offset And Continuously Split With Count Each Time Interval In Relative Arc2" type="Node" parent="Bullet Pattern Entry/Loop Bullet Patterns" node_paths=PackedStringArray("splitArcRange")]
script = ExtResource("4_4foia")
interval = 1.0
splitArcRange = NodePath("../Shoot Ahead With Offset And Continuously Split With Count Each Time Interval In Relative Arc/Relative Degrees Range")
splitCount = 2
splitBulletScenePath = "res://Scenes/Objects (Scenes)/Bullets (Scenes)/Enemy Bullets/Enemy Bullet 5B.tscn"
offset = Vector3(0, 0, 0)
canShoot = true

[node name="Relative Degrees Range" type="Node" parent="Bullet Pattern Entry/Loop Bullet Patterns/Shoot Ahead With Offset And Continuously Split With Count Each Time Interval In Relative Arc2"]
script = ExtResource("5_d3e6q")
min = -90.0
max = 90.0

[node name="RigidBody2D" type="RigidBody2D" parent="."]
use_parent_material = true
collision_layer = 2
collision_mask = 6

[node name="Shoot Spawner" type="Node2D" parent="RigidBody2D"]

[node name="CollisionShape2D" type="CollisionShape2D" parent="RigidBody2D"]
scale = Vector2(0.1, 0.1)
shape = SubResource("CircleShape2D_ne0ub")

[node name="Sprite2D" type="Sprite2D" parent="RigidBody2D" node_paths=PackedStringArray("initTimeOffsetRange")]
use_parent_material = true
scale = Vector2(0.1, 0.1)
texture = ExtResource("6_ccq0s")
script = ExtResource("7_u5swo")
setInitTimeOffset = true
initTimeOffsetRange = NodePath("Time Offset Range")

[node name="Time Offset Range" type="Node" parent="RigidBody2D/Sprite2D"]
script = ExtResource("5_d3e6q")
min = -99.0
max = 99.0

[node name="Targeted Indicator" type="Sprite2D" parent="RigidBody2D"]
visible = false
modulate = Color(0, 0, 0, 1)
scale = Vector2(0.1, 0.1)
texture = ExtResource("8_o5h6l")
