[gd_scene load_steps=10 format=3]

[ext_resource type="Script" path="res://Scripts/Objects (Scripts)/Enemy.gd" id="1_7u6qm"]
[ext_resource type="Script" path="res://Scripts/Concepts (Scripts)/BulletPatternEntry.gd" id="2_tfev2"]
[ext_resource type="Script" path="res://Scripts/Concepts (Scripts)/Bullet Patterrns/LoopBulletPatterns.gd" id="3_vic2n"]
[ext_resource type="Script" path="res://Scripts/Concepts (Scripts)/Bullet Patterrns/ShootHomingShot.gd" id="4_m3fwr"]
[ext_resource type="Texture2D" path="res://Art/Textures/Enemy 5.png" id="5_0vn1w"]
[ext_resource type="Script" path="res://Scripts/Concepts (Scripts)/Renderer.gd" id="6_8i8u3"]
[ext_resource type="Script" path="res://Scripts/Concepts (Scripts)/FloatRange.gd" id="7_m1dy1"]
[ext_resource type="Texture2D" path="res://Art/Textures/Circle Outline.png" id="8_16tcd"]

[sub_resource type="CircleShape2D" id="CircleShape2D_ne0ub"]
radius = 127.75

[node name="Enemy 6" type="Node3D" node_paths=PackedStringArray("bulletPatternEntry", "shootTransformNode", "targetedIndicator")]
script = ExtResource("1_7u6qm")
moveSpeed = 40.0
reloadSpeed = 3.0
followDistance = 0.0
bulletPatternEntry = NodePath("Bullet Pattern Entry")
shootTransformNode = NodePath("RigidBody2D/Shoot Spawner")
difficulty = 18.0
targetedIndicator = NodePath("RigidBody2D/Targeted Indicator")
maxHp = 50.0

[node name="Bullet Pattern Entry" type="Node" parent="." node_paths=PackedStringArray("bulletPattern")]
script = ExtResource("2_tfev2")
bulletPattern = NodePath("Loop Bullet Patterns")
bulletScenePath = "res://Scenes/Objects (Scenes)/Bullets (Scenes)/Enemy Bullets/Enemy Bullet 6.tscn"

[node name="Loop Bullet Patterns" type="Node" parent="Bullet Pattern Entry" node_paths=PackedStringArray("bulletPatterns")]
script = ExtResource("3_vic2n")
count = 1
bulletPatterns = [NodePath("Shoot Homing Shot")]
canShoot = false

[node name="Shoot Homing Shot" type="Node" parent="Bullet Pattern Entry/Loop Bullet Patterns"]
script = ExtResource("4_m3fwr")
rotateSpeed = 90.0
canShoot = true

[node name="RigidBody2D" type="RigidBody2D" parent="."]
use_parent_material = true
collision_layer = 2
collision_mask = 6

[node name="Shoot Spawner" type="Node2D" parent="RigidBody2D"]
scale = Vector2(0.1, 0.1)

[node name="CollisionShape2D" type="CollisionShape2D" parent="RigidBody2D"]
scale = Vector2(0.1, 0.1)
shape = SubResource("CircleShape2D_ne0ub")

[node name="Sprite2D" type="Sprite2D" parent="RigidBody2D" node_paths=PackedStringArray("initTimeOffsetRange")]
use_parent_material = true
scale = Vector2(0.1, 0.1)
texture = ExtResource("5_0vn1w")
script = ExtResource("6_8i8u3")
setInitTimeOffset = true
initTimeOffsetRange = NodePath("Time Offset Range")

[node name="Time Offset Range" type="Node" parent="RigidBody2D/Sprite2D"]
script = ExtResource("7_m1dy1")
min = -99.0
max = 99.0

[node name="Targeted Indicator" type="Sprite2D" parent="RigidBody2D"]
visible = false
modulate = Color(0, 0, 0, 1)
scale = Vector2(0.1, 0.1)
texture = ExtResource("8_16tcd")
