[gd_scene load_steps=6 format=3 uid="uid://mjrum8n8blgh"]

[ext_resource type="Script" path="res://Scripts/Objects (Scripts)/Enemies (Scripts)/ChargingEnemy.gd" id="2_8cw3v"]
[ext_resource type="Script" path="res://Scripts/Concepts (Scripts)/BulletPatternEntry.gd" id="2_ulnxt"]
[ext_resource type="Script" path="res://Scripts/Concepts (Scripts)/BulletPattern.gd" id="3_mk7on"]
[ext_resource type="PackedScene" uid="uid://uka4605bsgcy" path="res://Art/Models/Enemy 2.glb" id="7_sh18c"]

[sub_resource type="CapsuleShape3D" id="CapsuleShape3D_ftmyo"]
radius = 3.0
height = 10.0

[node name="Enemy 2" type="Node3D" node_paths=PackedStringArray("bulletPatternEntry", "characterBody")]
script = ExtResource("2_8cw3v")
speedMultiplierWhenCharging = 3.0
chargeRange = 125.0
chargeReloadTime = 3.0
damage = 1
moveSpeed = 10.0
reloadSpeed = -1.0
bulletPatternEntry = NodePath("Bullet Pattern Entry")
characterBody = NodePath("CharacterBody3D")
difficulty = 1.0
height = 6.0
maxHp = 20.0

[node name="Bullet Pattern Entry" type="Node" parent="." node_paths=PackedStringArray("bulletPattern", "spawnNode")]
script = ExtResource("2_ulnxt")
bulletPattern = NodePath("Bullet Pattern")
bulletScenePath = "res://Scenes/Objects (Scenes)/Bullets (Scenes)/Enemy Bullets/Enemy Bullet 1.tscn"
spawnNode = NodePath("../CharacterBody3D/Shoot Spawner")

[node name="Bullet Pattern" type="Node" parent="Bullet Pattern Entry"]
script = ExtResource("3_mk7on")
canShoot = true

[node name="NavigationAgent3D" type="NavigationAgent3D" parent="."]

[node name="CharacterBody3D" type="CharacterBody3D" parent="."]
collision_layer = 4
collision_mask = 15
input_ray_pickable = false
axis_lock_angular_x = true
axis_lock_angular_z = true

[node name="Shoot Spawner" type="Node3D" parent="CharacterBody3D"]

[node name="CollisionShape2D" type="CollisionShape3D" parent="CharacterBody3D"]
transform = Transform3D(-4.37114e-08, -1, 0, 1, -4.37114e-08, 0, 0, 0, 1, 0, 0, 0)
shape = SubResource("CapsuleShape3D_ftmyo")

[node name="Enemy 2" parent="CharacterBody3D" instance=ExtResource("7_sh18c")]
transform = Transform3D(1, 0, 0, 0, 1, 0, 0, 0, 1, -6, -2, 0)
