[gd_scene format=3 uid="uid://dt5g2j8txu0i0"]

[node name="God Effect Choise Button" type="Button"]
custom_minimum_size = Vector2(0, 100)
offset_right = 8.0
offset_bottom = 100.0

[node name="Label" type="Label" parent="."]
layout_mode = 0
offset_right = 850.0
offset_bottom = 100.0
horizontal_alignment = 1
vertical_alignment = 1
