[gd_scene load_steps=3 format=3 uid="uid://bd3jho36pipvu"]

[ext_resource type="Texture2D" uid="uid://cx78702ggnfir" path="res://Art/Textures/Ground.png" id="1_1yiam"]
[ext_resource type="Script" path="res://Scripts/Concepts (Scripts)/UIItem.gd" id="2_0bshj"]

[node name="Hp Image" type="Sprite3D"]
texture = ExtResource("1_1yiam")
script = ExtResource("2_0bshj")
