[gd_scene load_steps=3 format=3 uid="uid://dhge04untlop6"]

[ext_resource type="Script" path="res://Scripts/Concepts (Scripts)/UI Items (Scripts)/Menu.gd" id="1_821l2"]
[ext_resource type="PackedScene" uid="uid://ng2aie60xl57" path="res://Scenes/Concepts (Scenes)/UI Item.tscn" id="1_rnoyh"]

[node name="Menu" instance=ExtResource("1_rnoyh")]
anchors_preset = 8
anchor_left = 0.5
anchor_top = 0.5
anchor_right = 0.5
anchor_bottom = 0.5
offset_left = -576.0
offset_top = -324.0
offset_right = -576.0
offset_bottom = -324.0
grow_horizontal = 2
grow_vertical = 2
script = ExtResource("1_821l2")
open = false
pauseOnOpen = false
unpauseOnClose = false
pivotNormalized = Vector2(0.5, 0.5)
