[gd_scene load_steps=3 format=3 uid="uid://dsjba11v3wqfl"]

[ext_resource type="PackedScene" uid="uid://s4ewwan3kh7q" path="res://Scenes/Objects (Scenes)/Item.tscn" id="1_pgrkp"]
[ext_resource type="Script" path="res://Scripts/Objects (Scripts)/Items (Scripts)/AddToDamageItem.gd" id="2_cf7ps"]

[node name="Add To Damage Item" instance=ExtResource("1_pgrkp")]
script = ExtResource("2_cf7ps")
amount = 0.0

[node name="Control" parent="." index="1"]
visible = false
